ui\ProductPanel$3.class
dao\ReceiptDao.class
model\Receipt.class
com\mycompany\storeproject\poc\TestReceipt.class
com\mycompany\storeproject\poc\TestConnection.class
ui\ProductPanel$4.class
ui\ProductPanel$1.class
model\Customer.class
model\User.class
ui\ProductPanel$2.class
model\ReceiptDetail.class
ui\ProductPanel$ProductTableModel.class
ui\ProductPanel$5.class
